{
 "align_labels_right": 1,
 "creation": "2020-07-19 10:45:50.404343",
 "custom_format": 0,
 "default_print_language": "en",
 "disabled": 0,
 "doc_type": "Salary Slip",
 "docstatus": 0,
 "doctype": "Print Format",
 "font": "Default",
 "format_data": "[{\"fieldname\": \"print_heading_template\", \"fieldtype\": \"Custom HTML\", \"options\": \"<div class=\\\"print-heading\\\">\\t\\t\\t\\t<h2>Salary Slip<br><small>{{ doc.name }}</small>\\t\\t\\t\\t</h2></div>\"}, {\"fieldtype\": \"Section Break\", \"label\": \"\"}, {\"fieldtype\": \"Column Break\"}, {\"fieldname\": \"employee\", \"print_hide\": 0, \"label\": \"Employee\"}, {\"fieldname\": \"company\", \"print_hide\": 0, \"label\": \"Company\"}, {\"fieldname\": \"employee_name\", \"print_hide\": 0, \"label\": \"Employee Name\"}, {\"fieldname\": \"department\", \"print_hide\": 0, \"label\": \"Department\"}, {\"fieldname\": \"designation\", \"print_hide\": 0, \"label\": \"Designation\"}, {\"fieldname\": \"branch\", \"print_hide\": 0, \"label\": \"Branch\"}, {\"fieldtype\": \"Column Break\"}, {\"fieldname\": \"start_date\", \"print_hide\": 0, \"label\": \"Start Date\"}, {\"fieldname\": \"end_date\", \"print_hide\": 0, \"label\": \"End Date\"}, {\"fieldname\": \"total_working_days\", \"print_hide\": 0, \"label\": \"Working Days\"}, {\"fieldname\": \"leave_without_pay\", \"print_hide\": 0, \"label\": \"Leave Without Pay\"}, {\"fieldname\": \"payment_days\", \"print_hide\": 0, \"label\": \"Payment Days\"}, {\"fieldtype\": \"Section Break\", \"label\": \"Earning & Deduction\"}, {\"fieldtype\": \"Column Break\"}, {\"fieldname\": \"_custom_html\", \"print_hide\": 0, \"label\": \"Custom HTML\", \"fieldtype\": \"HTML\", \"options\": \"<table class=\\\"table table-bordered table-condensed\\\">\\r\\n    <thead>\\r\\n       <tr>\\r\\n          <th style=\\\"width: 40px\\\" class=\\\"table-sr\\\">Sr</th>\\r\\n          <th style=\\\"width: 150px;\\\" class=\\\"\\\" data-fieldname=\\\"deductions\\\" data-fieldtype=\\\"Table\\\">\\r\\n             Component\\r\\n          </th>\\r\\n          <th style=\\\"width: 80px;\\\" class=\\\"text-right\\\" data-fieldname=\\\"deductions\\\" data-fieldtype=\\\"Table\\\">\\r\\n             Amount\\r\\n          </th>\\r\\n         \\r\\n       </tr>\\r\\n    </thead>\\r\\n    <tbody>\\r\\n        {% for data in doc.earnings %}\\r\\n          \\r\\n        {% if data.salary_component != frappe.db.get_value(\\\"HR Enhancement Setting\\\",None,\\\"gross_component\\\") %}\\r\\n        \\r\\n       <tr>\\r\\n          <td class=\\\"table-sr\\\">{{data.idx}}</td>\\r\\n          <td class=\\\"\\\" data-fieldname=\\\"deductions\\\" data-fieldtype=\\\"Table\\\">\\r\\n             <div class=\\\"value\\\">\\r\\n                {{data.salary_component}}\\r\\n             </div>\\r\\n          </td>\\r\\n          <td class=\\\"text-right\\\" data-fieldname=\\\"deductions\\\" data-fieldtype=\\\"Table\\\">\\r\\n             <div class=\\\"value\\\">{{frappe.format_value(data.amount, {\\\"fieldtype\\\":\\\"Currency\\\"})}}\\r\\n             </div>\\r\\n          </td>\\r\\n          \\r\\n       </tr>\\r\\n       {% endif %}\\r\\n       {% endfor %}\\r\\n    </tbody>\\r\\n </table>\"}, {\"fieldtype\": \"Column Break\"}, {\"fieldname\": \"deductions\", \"print_hide\": 0, \"label\": \"Deductions\", \"visible_columns\": [{\"fieldname\": \"salary_component\", \"print_width\": \"\", \"print_hide\": 0}, {\"fieldname\": \"amount\", \"print_width\": \"\", \"print_hide\": 0}]}, {\"fieldtype\": \"Section Break\", \"label\": \"\"}, {\"fieldtype\": \"Column Break\"}, {\"fieldtype\": \"Column Break\"}, {\"fieldname\": \"gross_pay\", \"print_hide\": 0, \"label\": \"Gross Pay\"}, {\"fieldname\": \"total_deduction\", \"print_hide\": 0, \"label\": \"Total Deduction\"}, {\"fieldname\": \"net_pay\", \"print_hide\": 0, \"label\": \"Net Pay\"}, {\"fieldname\": \"rounded_total\", \"print_hide\": 0, \"label\": \"Rounded Total\"}, {\"fieldname\": \"total_in_words\", \"print_hide\": 0, \"label\": \"Total in words\"}]",
 "idx": 0,
 "line_breaks": 1,
 "modified": "2020-07-19 11:14:35.390853",
 "modified_by": "Administrator",
 "module": "Hr Enhancement",
 "name": "Custom Salary Slip",
 "owner": "Administrator",
 "print_format_builder": 0,
 "print_format_type": "Jinja",
 "raw_printing": 0,
 "show_section_headings": 1,
 "standard": "Yes"
}